…
Observations are the level of items in orders by user. There are some
user/order variables – user ID, order ID, order day, and order hour.
There are also item variables – name, aisle, department, and some
numeric codes.

How many aisles, and which are most items from?

``` r
instacart %>% 
  count(aisle) %>% 
  arrange(desc(n))
```

    ## # A tibble: 134 x 2
    ##    aisle                              n
    ##    <chr>                          <int>
    ##  1 fresh vegetables              150609
    ##  2 fresh fruits                  150473
    ##  3 packaged vegetables fruits     78493
    ##  4 yogurt                         55240
    ##  5 packaged cheese                41699
    ##  6 water seltzer sparkling water  36617
    ##  7 milk                           32644
    ##  8 chips pretzels                 31269
    ##  9 soy lactosefree                26240
    ## 10 bread                          23635
    ## # … with 124 more rows
…
``` r
  tidy_noaa %>% 
  count(snow) %>% 
  arrange(snow)
```

    ## # A tibble: 282 x 2
    ##     snow       n
    ##    <int>   <int>
    ##  1   -13       1
    ##  2     0 2008508
    ##  3     3    8790
    ##  4     5    9748
    ##  5     8    9962
    ##  6    10    5106
    ##  7    13   23095
    ##  8    15    3672
    ##  9    18    3226
    ## 10    20    4797
    ## # … with 272 more rows

``` r
tidy_noaa
```

    ## # A tibble: 2,595,176 x 12
    ##    id     year month   day  prcp  snow  snwd  tmax  tmin `(tmin = (tmin/…
    ##    <chr> <int> <int> <int> <int> <int> <int> <dbl> <dbl>            <dbl>
    ##  1 US1N…  2007    11     1    NA    NA    NA    NA    NA               NA
    ##  2 US1N…  2007    11     2    NA    NA    NA    NA    NA               NA
    ##  3 US1N…  2007    11     3    NA    NA    NA    NA    NA               NA
    ##  4 US1N…  2007    11     4    NA    NA    NA    NA    NA               NA
    ##  5 US1N…  2007    11     5    NA    NA    NA    NA    NA               NA
    ##  6 US1N…  2007    11     6    NA    NA    NA    NA    NA               NA
    ##  7 US1N…  2007    11     7    NA    NA    NA    NA    NA               NA
    ##  8 US1N…  2007    11     8    NA    NA    NA    NA    NA               NA
    ##  9 US1N…  2007    11     9    NA    NA    NA    NA    NA               NA
    ## 10 US1N…  2007    11    10    NA    NA    NA    NA    NA               NA
    ## # … with 2,595,166 more rows, and 2 more variables: `(tmax = (tmax/10))` <dbl>,
    ## #   `(prcp = (prcp/10))` <dbl>
…
